{
  "fields": [
    {
      "aggregatable": true,
      "custom": false,
      "defaultValue": null,
      "extraTypeInfo": null,
      "filterable": true,
      "groupable": true,
      "inlineHelpText": null,
      "label": "Id. de colaboración de objeto personalizado",
      "name": "Id",
      "nillable": false,
      "picklistValues": [],
      "referenceTo": [],
      "relationshipName": null,
      "sortable": true,
      "type": "id"
    },
    {
      "aggregatable": true,
      "custom": false,
      "defaultValue": null,
      "extraTypeInfo": null,
      "filterable": true,
      "groupable": true,
      "inlineHelpText": null,
      "label": "Id. principal",
      "name": "ParentId",
      "nillable": false,
      "picklistValues": [],
      "referenceTo": [
        "AuthorizationFormDataUse"
      ],
      "relationshipName": "Parent",
      "sortable": true,
      "type": "reference"
    },
    {
      "aggregatable": true,
      "custom": false,
      "defaultValue": null,
      "extraTypeInfo": null,
      "filterable": true,
      "groupable": true,
      "inlineHelpText": null,
      "label": "Id. de grupo o usuario",
      "name": "UserOrGroupId",
      "nillable": false,
      "picklistValues": [],
      "referenceTo": [
        "Group",
        "User"
      ],
      "relationshipName": "UserOrGroup",
      "sortable": true,
      "type": "reference"
    },
    {
      "aggregatable": true,
      "custom": false,
      "defaultValue": null,
      "extraTypeInfo": null,
      "filterable": true,
      "groupable": true,
      "inlineHelpText": null,
      "label": "Acceso al objeto personalizado",
      "name": "AccessLevel",
      "nillable": false,
      "picklistValues": [
        {
          "active": true,
          "defaultValue": false,
          "label": "Sólo lectura",
          "validFor": null,
          "value": "Read"
        },
        {
          "active": true,
          "defaultValue": false,
          "label": "Lectura/escritura",
          "validFor": null,
          "value": "Edit"
        },
        {
          "active": true,
          "defaultValue": false,
          "label": "Propietario",
          "validFor": null,
          "value": "All"
        }
      ],
      "referenceTo": [],
      "relationshipName": null,
      "sortable": true,
      "type": "picklist"
    },
    {
      "aggregatable": true,
      "custom": false,
      "defaultValue": null,
      "extraTypeInfo": null,
      "filterable": true,
      "groupable": true,
      "inlineHelpText": null,
      "label": "Causa del problema",
      "name": "RowCause",
      "nillable": true,
      "picklistValues": [
        {
          "active": true,
          "defaultValue": false,
          "label": "Propietario",
          "validFor": null,
          "value": "Owner"
        },
        {
          "active": true,
          "defaultValue": false,
          "label": "Colaboración manual",
          "validFor": null,
          "value": "Manual"
        },
        {
          "active": true,
          "defaultValue": false,
          "label": "Regla de colaboración",
          "validFor": null,
          "value": "Rule"
        },
        {
          "active": true,
          "defaultValue": false,
          "label": "Colaboración de cuentas",
          "validFor": null,
          "value": "ImplicitChild"
        },
        {
          "active": true,
          "defaultValue": false,
          "label": "Colaboración o propietario del registro asociado",
          "validFor": null,
          "value": "ImplicitParent"
        },
        {
          "active": true,
          "defaultValue": false,
          "label": "Contacto personal",
          "validFor": null,
          "value": "ImplicitPerson"
        },
        {
          "active": true,
          "defaultValue": false,
          "label": "Equipo de ventas",
          "validFor": null,
          "value": "Team"
        },
        {
          "active": true,
          "defaultValue": false,
          "label": "Regla de asignación de territorio",
          "validFor": null,
          "value": "Territory"
        },
        {
          "active": true,
          "defaultValue": false,
          "label": "Manual de territorio",
          "validFor": null,
          "value": "TerritoryManual"
        },
        {
          "active": true,
          "defaultValue": false,
          "label": "Manual de territorio",
          "validFor": null,
          "value": "Territory2AssociationManual"
        },
        {
          "active": true,
          "defaultValue": false,
          "label": "Regla de colaboración de territorio",
          "validFor": null,
          "value": "TerritoryRule"
        },
        {
          "active": true,
          "defaultValue": false,
          "label": "Asignación de Territorio para la previsión y elaboración de informes",
          "validFor": null,
          "value": "Territory2Forecast"
        },
        {
          "active": true,
          "defaultValue": false,
          "label": "Regla de colaboración de usuario invitado",
          "validFor": null,
          "value": "GuestRule"
        },
        {
          "active": true,
          "defaultValue": false,
          "label": "Colaboración de usuario invitado asociada",
          "validFor": null,
          "value": "GuestParentImplicit"
        },
        {
          "active": true,
          "defaultValue": false,
          "label": "Colaboración de usuario invitado asociada",
          "validFor": null,
          "value": "GuestPersonImplicit"
        },
        {
          "active": true,
          "defaultValue": false,
          "label": "Regla de colaboración de encuesta",
          "validFor": null,
          "value": "SurveyShare"
        },
        {
          "active": true,
          "defaultValue": false,
          "label": "Colaboración de datos de cumplimiento",
          "validFor": null,
          "value": "CompliantDataSharing"
        },
        {
          "active": true,
          "defaultValue": false,
          "label": "Regla de colaboración de objetivos de fabricación",
          "validFor": null,
          "value": "MfgTargetShare"
        },
        {
          "active": true,
          "defaultValue": false,
          "label": "Recopilación de registros",
          "validFor": null,
          "value": "SharingRecordCollection"
        }
      ],
      "referenceTo": [],
      "relationshipName": null,
      "sortable": true,
      "type": "picklist"
    },
    {
      "aggregatable": true,
      "custom": false,
      "defaultValue": null,
      "extraTypeInfo": null,
      "filterable": true,
      "groupable": false,
      "inlineHelpText": null,
      "label": "Fecha de la última modificación",
      "name": "LastModifiedDate",
      "nillable": false,
      "picklistValues": [],
      "referenceTo": [],
      "relationshipName": null,
      "sortable": true,
      "type": "datetime"
    },
    {
      "aggregatable": true,
      "custom": false,
      "defaultValue": null,
      "extraTypeInfo": null,
      "filterable": true,
      "groupable": true,
      "inlineHelpText": null,
      "label": "Última modificación realizada por el Id.",
      "name": "LastModifiedById",
      "nillable": false,
      "picklistValues": [],
      "referenceTo": [
        "User"
      ],
      "relationshipName": "LastModifiedBy",
      "sortable": true,
      "type": "reference"
    },
    {
      "aggregatable": false,
      "custom": false,
      "defaultValue": false,
      "extraTypeInfo": null,
      "filterable": true,
      "groupable": true,
      "inlineHelpText": null,
      "label": "Eliminado",
      "name": "IsDeleted",
      "nillable": false,
      "picklistValues": [],
      "referenceTo": [],
      "relationshipName": null,
      "sortable": true,
      "type": "boolean"
    }
  ],
  "label": "Compartir Uso de datos de formulario de autorización",
  "childRelationships": [],
  "custom": false,
  "name": "AuthorizationFormDataUseShare",
  "queryable": true
}