{
  "fields": [
    {
      "aggregatable": true,
      "custom": false,
      "defaultValue": null,
      "extraTypeInfo": null,
      "filterable": true,
      "groupable": true,
      "inlineHelpText": null,
      "label": "Id. de versión de contenido",
      "name": "Id",
      "nillable": false,
      "picklistValues": [],
      "referenceTo": [],
      "relationshipName": null,
      "sortable": true,
      "type": "id"
    },
    {
      "aggregatable": false,
      "custom": false,
      "defaultValue": false,
      "extraTypeInfo": null,
      "filterable": true,
      "groupable": true,
      "inlineHelpText": null,
      "label": "Eliminado",
      "name": "IsDeleted",
      "nillable": false,
      "picklistValues": [],
      "referenceTo": [],
      "relationshipName": null,
      "sortable": true,
      "type": "boolean"
    },
    {
      "aggregatable": true,
      "custom": false,
      "defaultValue": null,
      "extraTypeInfo": null,
      "filterable": true,
      "groupable": true,
      "inlineHelpText": null,
      "label": "Id. de versión de contenido",
      "name": "ContentVersionId",
      "nillable": false,
      "picklistValues": [],
      "referenceTo": [
        "ContentVersion"
      ],
      "relationshipName": "ContentVersion",
      "sortable": true,
      "type": "reference"
    },
    {
      "aggregatable": true,
      "custom": false,
      "defaultValue": null,
      "extraTypeInfo": null,
      "filterable": true,
      "groupable": true,
      "inlineHelpText": null,
      "label": "Creado por el Id.",
      "name": "CreatedById",
      "nillable": false,
      "picklistValues": [],
      "referenceTo": [
        "User"
      ],
      "relationshipName": "CreatedBy",
      "sortable": true,
      "type": "reference"
    },
    {
      "aggregatable": true,
      "custom": false,
      "defaultValue": null,
      "extraTypeInfo": null,
      "filterable": true,
      "groupable": false,
      "inlineHelpText": null,
      "label": "Fecha de creación",
      "name": "CreatedDate",
      "nillable": false,
      "picklistValues": [],
      "referenceTo": [],
      "relationshipName": null,
      "sortable": true,
      "type": "datetime"
    },
    {
      "aggregatable": true,
      "custom": false,
      "defaultValue": null,
      "extraTypeInfo": null,
      "filterable": true,
      "groupable": true,
      "inlineHelpText": null,
      "label": "Campo modificado",
      "name": "Field",
      "nillable": false,
      "picklistValues": [
        {
          "active": true,
          "defaultValue": false,
          "label": "Creado.",
          "validFor": null,
          "value": "created"
        },
        {
          "active": true,
          "defaultValue": false,
          "label": "Datos de versión sustituidos",
          "validFor": null,
          "value": "contentVersionDataReplaced"
        },
        {
          "active": true,
          "defaultValue": false,
          "label": "Descripción",
          "validFor": null,
          "value": "Description"
        },
        {
          "active": true,
          "defaultValue": false,
          "label": "Evento de noticias en tiempo real",
          "validFor": null,
          "value": "feedEvent"
        },
        {
          "active": true,
          "defaultValue": false,
          "label": "Evitar que los demás usuarios compartan o dejen de compartir",
          "validFor": null,
          "value": "SharingOption"
        },
        {
          "active": true,
          "defaultValue": false,
          "label": "Fuente de datos externos",
          "validFor": null,
          "value": "ExternalDataSource"
        },
        {
          "active": true,
          "defaultValue": false,
          "label": "Idioma",
          "validFor": null,
          "value": "Language"
        },
        {
          "active": true,
          "defaultValue": false,
          "label": "Información de documento externo 1",
          "validFor": null,
          "value": "ExternalDocumentInfo1"
        },
        {
          "active": true,
          "defaultValue": false,
          "label": "Información de documento externo 2",
          "validFor": null,
          "value": "ExternalDocumentInfo2"
        },
        {
          "active": true,
          "defaultValue": false,
          "label": "Motivo de cambio",
          "validFor": null,
          "value": "ReasonForChange"
        },
        {
          "active": true,
          "defaultValue": false,
          "label": "Persona fusionada",
          "validFor": null,
          "value": "individualMerged"
        },
        {
          "active": true,
          "defaultValue": false,
          "label": "Privacidad de archivos en registros",
          "validFor": null,
          "value": "SharingPrivacy"
        },
        {
          "active": true,
          "defaultValue": false,
          "label": "Propietario",
          "validFor": null,
          "value": "Owner"
        },
        {
          "active": true,
          "defaultValue": false,
          "label": "Propietario (aceptado)",
          "validFor": null,
          "value": "ownerAccepted"
        },
        {
          "active": true,
          "defaultValue": false,
          "label": "Propietario (asignación)",
          "validFor": null,
          "value": "ownerAssignment"
        },
        {
          "active": true,
          "defaultValue": false,
          "label": "Registro bloqueado.",
          "validFor": null,
          "value": "locked"
        },
        {
          "active": true,
          "defaultValue": false,
          "label": "Registro desbloqueado.",
          "validFor": null,
          "value": "unlocked"
        },
        {
          "active": true,
          "defaultValue": false,
          "label": "Título",
          "validFor": null,
          "value": "Title"
        },
        {
          "active": true,
          "defaultValue": false,
          "label": "URL de contenido",
          "validFor": null,
          "value": "ContentUrl"
        },
        {
          "active": true,
          "defaultValue": false,
          "label": "Versión actualizada",
          "validFor": null,
          "value": "contentVersionUpdated"
        },
        {
          "active": true,
          "defaultValue": false,
          "label": "Versión comentada",
          "validFor": null,
          "value": "contentVersionCommented"
        },
        {
          "active": true,
          "defaultValue": false,
          "label": "Versión creada",
          "validFor": null,
          "value": "contentVersionCreated"
        },
        {
          "active": true,
          "defaultValue": false,
          "label": "Versión descargada",
          "validFor": null,
          "value": "contentVersionDownloaded"
        },
        {
          "active": true,
          "defaultValue": false,
          "label": "Versión eliminada",
          "validFor": null,
          "value": "contentVersionDeleted"
        },
        {
          "active": true,
          "defaultValue": false,
          "label": "Versión principal",
          "validFor": null,
          "value": "IsMajorVersion"
        },
        {
          "active": true,
          "defaultValue": false,
          "label": "Versión valorada",
          "validFor": null,
          "value": "contentVersionRated"
        },
        {
          "active": true,
          "defaultValue": false,
          "label": "Versión visualizada",
          "validFor": null,
          "value": "contentVersionViewed"
        }
      ],
      "referenceTo": [],
      "relationshipName": null,
      "sortable": true,
      "type": "picklist"
    },
    {
      "aggregatable": false,
      "custom": false,
      "defaultValue": null,
      "extraTypeInfo": null,
      "filterable": false,
      "groupable": false,
      "inlineHelpText": null,
      "label": "Valor anterior",
      "name": "OldValue",
      "nillable": true,
      "picklistValues": [],
      "referenceTo": [],
      "relationshipName": null,
      "sortable": true,
      "type": "anyType"
    },
    {
      "aggregatable": false,
      "custom": false,
      "defaultValue": null,
      "extraTypeInfo": null,
      "filterable": false,
      "groupable": false,
      "inlineHelpText": null,
      "label": "Valor nuevo",
      "name": "NewValue",
      "nillable": true,
      "picklistValues": [],
      "referenceTo": [],
      "relationshipName": null,
      "sortable": true,
      "type": "anyType"
    }
  ],
  "label": "Historial de versión de contenido",
  "childRelationships": [],
  "custom": false,
  "name": "ContentVersionHistory",
  "queryable": true
}