{
  "fields": [
    {
      "aggregatable": false,
      "custom": false,
      "defaultValue": null,
      "extraTypeInfo": null,
      "filterable": true,
      "groupable": true,
      "inlineHelpText": null,
      "label": "Id. del sistema",
      "name": "Id",
      "nillable": false,
      "picklistValues": [],
      "referenceTo": [],
      "relationshipName": null,
      "sortable": true,
      "type": "id"
    },
    {
      "aggregatable": false,
      "custom": false,
      "defaultValue": null,
      "extraTypeInfo": null,
      "filterable": true,
      "groupable": true,
      "inlineHelpText": null,
      "label": "Id. de empresa de Data.com",
      "name": "ExternalId",
      "nillable": true,
      "picklistValues": [],
      "referenceTo": [],
      "relationshipName": null,
      "sortable": true,
      "type": "string"
    },
    {
      "aggregatable": false,
      "custom": false,
      "defaultValue": null,
      "extraTypeInfo": null,
      "filterable": true,
      "groupable": true,
      "inlineHelpText": null,
      "label": "Id. de empresa de Data.com",
      "name": "CompanyId",
      "nillable": true,
      "picklistValues": [],
      "referenceTo": [],
      "relationshipName": null,
      "sortable": false,
      "type": "string"
    },
    {
      "aggregatable": false,
      "custom": false,
      "defaultValue": null,
      "extraTypeInfo": null,
      "filterable": true,
      "groupable": true,
      "inlineHelpText": null,
      "label": "Nombre de empresa",
      "name": "Name",
      "nillable": true,
      "picklistValues": [],
      "referenceTo": [],
      "relationshipName": null,
      "sortable": true,
      "type": "string"
    },
    {
      "aggregatable": false,
      "custom": false,
      "defaultValue": null,
      "extraTypeInfo": null,
      "filterable": false,
      "groupable": false,
      "inlineHelpText": null,
      "label": "Sinopsis de la empresa",
      "name": "Description",
      "nillable": true,
      "picklistValues": [],
      "referenceTo": [],
      "relationshipName": null,
      "sortable": false,
      "type": "string"
    },
    {
      "aggregatable": false,
      "custom": false,
      "defaultValue": false,
      "extraTypeInfo": null,
      "filterable": true,
      "groupable": true,
      "inlineHelpText": null,
      "label": "Estado inactivo",
      "name": "IsInactive",
      "nillable": false,
      "picklistValues": [],
      "referenceTo": [],
      "relationshipName": null,
      "sortable": false,
      "type": "boolean"
    },
    {
      "aggregatable": false,
      "custom": false,
      "defaultValue": null,
      "extraTypeInfo": null,
      "filterable": false,
      "groupable": true,
      "inlineHelpText": null,
      "label": "Número de teléfono",
      "name": "Phone",
      "nillable": true,
      "picklistValues": [],
      "referenceTo": [],
      "relationshipName": null,
      "sortable": false,
      "type": "phone"
    },
    {
      "aggregatable": false,
      "custom": false,
      "defaultValue": null,
      "extraTypeInfo": null,
      "filterable": false,
      "groupable": true,
      "inlineHelpText": null,
      "label": "Número de fax",
      "name": "Fax",
      "nillable": true,
      "picklistValues": [],
      "referenceTo": [],
      "relationshipName": null,
      "sortable": false,
      "type": "phone"
    },
    {
      "aggregatable": false,
      "custom": false,
      "defaultValue": null,
      "extraTypeInfo": null,
      "filterable": false,
      "groupable": true,
      "inlineHelpText": null,
      "label": "Dirección",
      "name": "Street",
      "nillable": true,
      "picklistValues": [],
      "referenceTo": [],
      "relationshipName": null,
      "sortable": false,
      "type": "string"
    },
    {
      "aggregatable": false,
      "custom": false,
      "defaultValue": null,
      "extraTypeInfo": null,
      "filterable": true,
      "groupable": true,
      "inlineHelpText": null,
      "label": "Ciudad",
      "name": "City",
      "nillable": true,
      "picklistValues": [],
      "referenceTo": [],
      "relationshipName": null,
      "sortable": true,
      "type": "string"
    },
    {
      "aggregatable": false,
      "custom": false,
      "defaultValue": null,
      "extraTypeInfo": null,
      "filterable": true,
      "groupable": true,
      "inlineHelpText": null,
      "label": "Estado",
      "name": "State",
      "nillable": true,
      "picklistValues": [],
      "referenceTo": [],
      "relationshipName": null,
      "sortable": true,
      "type": "string"
    },
    {
      "aggregatable": false,
      "custom": false,
      "defaultValue": null,
      "extraTypeInfo": null,
      "filterable": true,
      "groupable": true,
      "inlineHelpText": null,
      "label": "Estado",
      "name": "StateCode",
      "nillable": true,
      "picklistValues": [
        {
          "active": true,
          "defaultValue": false,
          "label": "Alabama",
          "validFor": null,
          "value": "AL"
        },
        {
          "active": true,
          "defaultValue": false,
          "label": "Alaska",
          "validFor": null,
          "value": "AK"
        },
        {
          "active": true,
          "defaultValue": false,
          "label": "American Samoa",
          "validFor": null,
          "value": "AS"
        },
        {
          "active": true,
          "defaultValue": false,
          "label": "Arizona",
          "validFor": null,
          "value": "AZ"
        },
        {
          "active": true,
          "defaultValue": false,
          "label": "Arkansas",
          "validFor": null,
          "value": "AR"
        },
        {
          "active": true,
          "defaultValue": false,
          "label": "California",
          "validFor": null,
          "value": "CA"
        },
        {
          "active": true,
          "defaultValue": false,
          "label": "Colorado",
          "validFor": null,
          "value": "CO"
        },
        {
          "active": true,
          "defaultValue": false,
          "label": "Connecticut",
          "validFor": null,
          "value": "CT"
        },
        {
          "active": true,
          "defaultValue": false,
          "label": "Delaware",
          "validFor": null,
          "value": "DE"
        },
        {
          "active": true,
          "defaultValue": false,
          "label": "District of Columbia",
          "validFor": null,
          "value": "DC"
        },
        {
          "active": true,
          "defaultValue": false,
          "label": "Federated Micronesia",
          "validFor": null,
          "value": "FM"
        },
        {
          "active": true,
          "defaultValue": false,
          "label": "Florida",
          "validFor": null,
          "value": "FL"
        },
        {
          "active": true,
          "defaultValue": false,
          "label": "Georgia",
          "validFor": null,
          "value": "GA"
        },
        {
          "active": true,
          "defaultValue": false,
          "label": "Guam",
          "validFor": null,
          "value": "GU"
        },
        {
          "active": true,
          "defaultValue": false,
          "label": "Hawaii",
          "validFor": null,
          "value": "HI"
        },
        {
          "active": true,
          "defaultValue": false,
          "label": "Idaho",
          "validFor": null,
          "value": "ID"
        },
        {
          "active": true,
          "defaultValue": false,
          "label": "Illinois",
          "validFor": null,
          "value": "IL"
        },
        {
          "active": true,
          "defaultValue": false,
          "label": "Indiana",
          "validFor": null,
          "value": "IN"
        },
        {
          "active": true,
          "defaultValue": false,
          "label": "Iowa",
          "validFor": null,
          "value": "IA"
        },
        {
          "active": true,
          "defaultValue": false,
          "label": "Kansas",
          "validFor": null,
          "value": "KS"
        },
        {
          "active": true,
          "defaultValue": false,
          "label": "Kentucky",
          "validFor": null,
          "value": "KY"
        },
        {
          "active": true,
          "defaultValue": false,
          "label": "Louisiana",
          "validFor": null,
          "value": "LA"
        },
        {
          "active": true,
          "defaultValue": false,
          "label": "Maine",
          "validFor": null,
          "value": "ME"
        },
        {
          "active": true,
          "defaultValue": false,
          "label": "Marshall Islands",
          "validFor": null,
          "value": "MH"
        },
        {
          "active": true,
          "defaultValue": false,
          "label": "Maryland",
          "validFor": null,
          "value": "MD"
        },
        {
          "active": true,
          "defaultValue": false,
          "label": "Massachusetts",
          "validFor": null,
          "value": "MA"
        },
        {
          "active": true,
          "defaultValue": false,
          "label": "Michigan",
          "validFor": null,
          "value": "MI"
        },
        {
          "active": true,
          "defaultValue": false,
          "label": "Minnesota",
          "validFor": null,
          "value": "MN"
        },
        {
          "active": true,
          "defaultValue": false,
          "label": "Mississippi",
          "validFor": null,
          "value": "MS"
        },
        {
          "active": true,
          "defaultValue": false,
          "label": "Missouri",
          "validFor": null,
          "value": "MO"
        },
        {
          "active": true,
          "defaultValue": false,
          "label": "Montana",
          "validFor": null,
          "value": "MT"
        },
        {
          "active": true,
          "defaultValue": false,
          "label": "Nebraska",
          "validFor": null,
          "value": "NE"
        },
        {
          "active": true,
          "defaultValue": false,
          "label": "Nevada",
          "validFor": null,
          "value": "NV"
        },
        {
          "active": true,
          "defaultValue": false,
          "label": "New Hampshire",
          "validFor": null,
          "value": "NH"
        },
        {
          "active": true,
          "defaultValue": false,
          "label": "Nueva Jersey",
          "validFor": null,
          "value": "NJ"
        },
        {
          "active": true,
          "defaultValue": false,
          "label": "New Mexico",
          "validFor": null,
          "value": "NM"
        },
        {
          "active": true,
          "defaultValue": false,
          "label": "New York",
          "validFor": null,
          "value": "NY"
        },
        {
          "active": true,
          "defaultValue": false,
          "label": "North Carolina",
          "validFor": null,
          "value": "NC"
        },
        {
          "active": true,
          "defaultValue": false,
          "label": "North Dakota",
          "validFor": null,
          "value": "ND"
        },
        {
          "active": true,
          "defaultValue": false,
          "label": "Islas Marianas del Norte",
          "validFor": null,
          "value": "MP"
        },
        {
          "active": true,
          "defaultValue": false,
          "label": "Ohio",
          "validFor": null,
          "value": "OH"
        },
        {
          "active": true,
          "defaultValue": false,
          "label": "Oklahoma",
          "validFor": null,
          "value": "OK"
        },
        {
          "active": true,
          "defaultValue": false,
          "label": "Oregon",
          "validFor": null,
          "value": "OR"
        },
        {
          "active": true,
          "defaultValue": false,
          "label": "Palau",
          "validFor": null,
          "value": "PW"
        },
        {
          "active": true,
          "defaultValue": false,
          "label": "Pennsylvania",
          "validFor": null,
          "value": "PA"
        },
        {
          "active": true,
          "defaultValue": false,
          "label": "Puerto Rico",
          "validFor": null,
          "value": "PR"
        },
        {
          "active": true,
          "defaultValue": false,
          "label": "Rhode Island",
          "validFor": null,
          "value": "RI"
        },
        {
          "active": true,
          "defaultValue": false,
          "label": "South Carolina",
          "validFor": null,
          "value": "SC"
        },
        {
          "active": true,
          "defaultValue": false,
          "label": "South Dakota",
          "validFor": null,
          "value": "SD"
        },
        {
          "active": true,
          "defaultValue": false,
          "label": "Tennessee",
          "validFor": null,
          "value": "TN"
        },
        {
          "active": true,
          "defaultValue": false,
          "label": "Texas",
          "validFor": null,
          "value": "TX"
        },
        {
          "active": true,
          "defaultValue": false,
          "label": "Utah",
          "validFor": null,
          "value": "UT"
        },
        {
          "active": true,
          "defaultValue": false,
          "label": "Vermont",
          "validFor": null,
          "value": "VT"
        },
        {
          "active": true,
          "defaultValue": false,
          "label": "Islas Vírgenes Estadounidenses",
          "validFor": null,
          "value": "VI"
        },
        {
          "active": true,
          "defaultValue": false,
          "label": "Virginia",
          "validFor": null,
          "value": "VA"
        },
        {
          "active": true,
          "defaultValue": false,
          "label": "Washington",
          "validFor": null,
          "value": "WA"
        },
        {
          "active": true,
          "defaultValue": false,
          "label": "West Virginia",
          "validFor": null,
          "value": "WV"
        },
        {
          "active": true,
          "defaultValue": false,
          "label": "Wisconsin",
          "validFor": null,
          "value": "WI"
        },
        {
          "active": true,
          "defaultValue": false,
          "label": "Wyoming",
          "validFor": null,
          "value": "WY"
        }
      ],
      "referenceTo": [],
      "relationshipName": null,
      "sortable": false,
      "type": "picklist"
    },
    {
      "aggregatable": false,
      "custom": false,
      "defaultValue": null,
      "extraTypeInfo": null,
      "filterable": true,
      "groupable": true,
      "inlineHelpText": null,
      "label": "País/Territorio",
      "name": "Country",
      "nillable": true,
      "picklistValues": [],
      "referenceTo": [],
      "relationshipName": null,
      "sortable": true,
      "type": "string"
    },
    {
      "aggregatable": false,
      "custom": false,
      "defaultValue": null,
      "extraTypeInfo": null,
      "filterable": true,
      "groupable": true,
      "inlineHelpText": null,
      "label": "País/Territorio",
      "name": "CountryCode",
      "nillable": true,
      "picklistValues": [
        {
          "active": true,
          "defaultValue": false,
          "label": "Afganistán",
          "validFor": null,
          "value": "AF"
        },
        {
          "active": true,
          "defaultValue": false,
          "label": "Albania",
          "validFor": null,
          "value": "AL"
        },
        {
          "active": true,
          "defaultValue": false,
          "label": "Argelia",
          "validFor": null,
          "value": "DZ"
        },
        {
          "active": true,
          "defaultValue": false,
          "label": "American Samoa",
          "validFor": null,
          "value": "AS"
        },
        {
          "active": true,
          "defaultValue": false,
          "label": "Andorra",
          "validFor": null,
          "value": "AD"
        },
        {
          "active": true,
          "defaultValue": false,
          "label": "Angola",
          "validFor": null,
          "value": "AO"
        },
        {
          "active": true,
          "defaultValue": false,
          "label": "Anguila",
          "validFor": null,
          "value": "AI"
        },
        {
          "active": true,
          "defaultValue": false,
          "label": "Antigua y Barbuda",
          "validFor": null,
          "value": "AG"
        },
        {
          "active": true,
          "defaultValue": false,
          "label": "Argentina",
          "validFor": null,
          "value": "AR"
        },
        {
          "active": true,
          "defaultValue": false,
          "label": "Armenia",
          "validFor": null,
          "value": "AM"
        },
        {
          "active": true,
          "defaultValue": false,
          "label": "Aruba",
          "validFor": null,
          "value": "AW"
        },
        {
          "active": true,
          "defaultValue": false,
          "label": "Austria",
          "validFor": null,
          "value": "AT"
        },
        {
          "active": true,
          "defaultValue": false,
          "label": "Australia",
          "validFor": null,
          "value": "AU"
        },
        {
          "active": true,
          "defaultValue": false,
          "label": "Azerbaiyán",
          "validFor": null,
          "value": "AZ"
        },
        {
          "active": true,
          "defaultValue": false,
          "label": "Bahamas",
          "validFor": null,
          "value": "BS"
        },
        {
          "active": true,
          "defaultValue": false,
          "label": "Bahréin",
          "validFor": null,
          "value": "BH"
        },
        {
          "active": true,
          "defaultValue": false,
          "label": "Bangladesh",
          "validFor": null,
          "value": "BD"
        },
        {
          "active": true,
          "defaultValue": false,
          "label": "Barbados",
          "validFor": null,
          "value": "BB"
        },
        {
          "active": true,
          "defaultValue": false,
          "label": "Belarús",
          "validFor": null,
          "value": "BY"
        },
        {
          "active": true,
          "defaultValue": false,
          "label": "Bélgica",
          "validFor": null,
          "value": "BE"
        },
        {
          "active": true,
          "defaultValue": false,
          "label": "Belice",
          "validFor": null,
          "value": "BZ"
        },
        {
          "active": true,
          "defaultValue": false,
          "label": "Bután",
          "validFor": null,
          "value": "BT"
        },
        {
          "active": true,
          "defaultValue": false,
          "label": "Benín",
          "validFor": null,
          "value": "BJ"
        },
        {
          "active": true,
          "defaultValue": false,
          "label": "Bermuda",
          "validFor": null,
          "value": "BM"
        },
        {
          "active": true,
          "defaultValue": false,
          "label": "Bolivia",
          "validFor": null,
          "value": "BO"
        },
        {
          "active": true,
          "defaultValue": false,
          "label": "Bosnia y Herzegovina",
          "validFor": null,
          "value": "BA"
        },
        {
          "active": true,
          "defaultValue": false,
          "label": "Botsuana",
          "validFor": null,
          "value": "BW"
        },
        {
          "active": true,
          "defaultValue": false,
          "label": "Brasil",
          "validFor": null,
          "value": "BR"
        },
        {
          "active": true,
          "defaultValue": false,
          "label": "Brunéi",
          "validFor": null,
          "value": "BN"
        },
        {
          "active": true,
          "defaultValue": false,
          "label": "Bulgaria",
          "validFor": null,
          "value": "BG"
        },
        {
          "active": true,
          "defaultValue": false,
          "label": "Burkina Faso",
          "validFor": null,
          "value": "BF"
        },
        {
          "active": true,
          "defaultValue": false,
          "label": "Burundi",
          "validFor": null,
          "value": "BI"
        },
        {
          "active": true,
          "defaultValue": false,
          "label": "Camboya",
          "validFor": null,
          "value": "KH"
        },
        {
          "active": true,
          "defaultValue": false,
          "label": "Camerún",
          "validFor": null,
          "value": "CM"
        },
        {
          "active": true,
          "defaultValue": false,
          "label": "Canadá",
          "validFor": null,
          "value": "CA"
        },
        {
          "active": true,
          "defaultValue": false,
          "label": "Cabo Verde",
          "validFor": null,
          "value": "CV"
        },
        {
          "active": true,
          "defaultValue": false,
          "label": "Islas Caimán",
          "validFor": null,
          "value": "KY"
        },
        {
          "active": true,
          "defaultValue": false,
          "label": "República Centroafricana",
          "validFor": null,
          "value": "CF"
        },
        {
          "active": true,
          "defaultValue": false,
          "label": "Chad",
          "validFor": null,
          "value": "TD"
        },
        {
          "active": true,
          "defaultValue": false,
          "label": "Chile",
          "validFor": null,
          "value": "CL"
        },
        {
          "active": true,
          "defaultValue": false,
          "label": "China",
          "validFor": null,
          "value": "CN"
        },
        {
          "active": true,
          "defaultValue": false,
          "label": "Isla de Navidad",
          "validFor": null,
          "value": "CX"
        },
        {
          "active": true,
          "defaultValue": false,
          "label": "Colombia",
          "validFor": null,
          "value": "CO"
        },
        {
          "active": true,
          "defaultValue": false,
          "label": "Comoras",
          "validFor": null,
          "value": "KM"
        },
        {
          "active": true,
          "defaultValue": false,
          "label": "Congo",
          "validFor": null,
          "value": "CG"
        },
        {
          "active": true,
          "defaultValue": false,
          "label": "República Democrática del Congo",
          "validFor": null,
          "value": "CD"
        },
        {
          "active": true,
          "defaultValue": false,
          "label": "Islas Cook",
          "validFor": null,
          "value": "CK"
        },
        {
          "active": true,
          "defaultValue": false,
          "label": "Costa Rica",
          "validFor": null,
          "value": "CR"
        },
        {
          "active": true,
          "defaultValue": false,
          "label": "Costa de Marfil",
          "validFor": null,
          "value": "CI"
        },
        {
          "active": true,
          "defaultValue": false,
          "label": "Croacia",
          "validFor": null,
          "value": "HR"
        },
        {
          "active": true,
          "defaultValue": false,
          "label": "Chipre",
          "validFor": null,
          "value": "CY"
        },
        {
          "active": true,
          "defaultValue": false,
          "label": "República Checa",
          "validFor": null,
          "value": "CZ"
        },
        {
          "active": true,
          "defaultValue": false,
          "label": "Dinamarca",
          "validFor": null,
          "value": "DK"
        },
        {
          "active": true,
          "defaultValue": false,
          "label": "Yibuti",
          "validFor": null,
          "value": "DJ"
        },
        {
          "active": true,
          "defaultValue": false,
          "label": "Dominica",
          "validFor": null,
          "value": "DM"
        },
        {
          "active": true,
          "defaultValue": false,
          "label": "República Dominicana",
          "validFor": null,
          "value": "DO"
        },
        {
          "active": true,
          "defaultValue": false,
          "label": "Ecuador",
          "validFor": null,
          "value": "EC"
        },
        {
          "active": true,
          "defaultValue": false,
          "label": "Egipto",
          "validFor": null,
          "value": "EG"
        },
        {
          "active": true,
          "defaultValue": false,
          "label": "Guinea Ecuatorial",
          "validFor": null,
          "value": "GQ"
        },
        {
          "active": true,
          "defaultValue": false,
          "label": "El Salvador",
          "validFor": null,
          "value": "SV"
        },
        {
          "active": true,
          "defaultValue": false,
          "label": "Eritrea",
          "validFor": null,
          "value": "ER"
        },
        {
          "active": true,
          "defaultValue": false,
          "label": "Estonia",
          "validFor": null,
          "value": "EE"
        },
        {
          "active": true,
          "defaultValue": false,
          "label": "Etiopía",
          "validFor": null,
          "value": "ET"
        },
        {
          "active": true,
          "defaultValue": false,
          "label": "Islas Malvinas",
          "validFor": null,
          "value": "FK"
        },
        {
          "active": true,
          "defaultValue": false,
          "label": "Islas Feroe",
          "validFor": null,
          "value": "FO"
        },
        {
          "active": true,
          "defaultValue": false,
          "label": "Fiyi",
          "validFor": null,
          "value": "FJ"
        },
        {
          "active": true,
          "defaultValue": false,
          "label": "Finlandia",
          "validFor": null,
          "value": "FI"
        },
        {
          "active": true,
          "defaultValue": false,
          "label": "Francia",
          "validFor": null,
          "value": "FR"
        },
        {
          "active": true,
          "defaultValue": false,
          "label": "Guyana francesa",
          "validFor": null,
          "value": "GF"
        },
        {
          "active": true,
          "defaultValue": false,
          "label": "Polinesia francesa",
          "validFor": null,
          "value": "PF"
        },
        {
          "active": true,
          "defaultValue": false,
          "label": "Gabón",
          "validFor": null,
          "value": "GA"
        },
        {
          "active": true,
          "defaultValue": false,
          "label": "Gambia",
          "validFor": null,
          "value": "GM"
        },
        {
          "active": true,
          "defaultValue": false,
          "label": "Georgia",
          "validFor": null,
          "value": "GE"
        },
        {
          "active": true,
          "defaultValue": false,
          "label": "Alemania",
          "validFor": null,
          "value": "DE"
        },
        {
          "active": true,
          "defaultValue": false,
          "label": "Ghana",
          "validFor": null,
          "value": "GH"
        },
        {
          "active": true,
          "defaultValue": false,
          "label": "Gibraltar",
          "validFor": null,
          "value": "GI"
        },
        {
          "active": true,
          "defaultValue": false,
          "label": "Grecia",
          "validFor": null,
          "value": "GR"
        },
        {
          "active": true,
          "defaultValue": false,
          "label": "Groenlandia",
          "validFor": null,
          "value": "GL"
        },
        {
          "active": true,
          "defaultValue": false,
          "label": "Granada",
          "validFor": null,
          "value": "GD"
        },
        {
          "active": true,
          "defaultValue": false,
          "label": "Guadalupe",
          "validFor": null,
          "value": "GP"
        },
        {
          "active": true,
          "defaultValue": false,
          "label": "Guam",
          "validFor": null,
          "value": "GU"
        },
        {
          "active": true,
          "defaultValue": false,
          "label": "Guatemala",
          "validFor": null,
          "value": "GT"
        },
        {
          "active": true,
          "defaultValue": false,
          "label": "Guinea",
          "validFor": null,
          "value": "GN"
        },
        {
          "active": true,
          "defaultValue": false,
          "label": "Guinea-Bisáu",
          "validFor": null,
          "value": "GW"
        },
        {
          "active": true,
          "defaultValue": false,
          "label": "Guyana",
          "validFor": null,
          "value": "GY"
        },
        {
          "active": true,
          "defaultValue": false,
          "label": "Haití",
          "validFor": null,
          "value": "HT"
        },
        {
          "active": true,
          "defaultValue": false,
          "label": "Honduras",
          "validFor": null,
          "value": "HN"
        },
        {
          "active": true,
          "defaultValue": false,
          "label": "Hong Kong",
          "validFor": null,
          "value": "HK"
        },
        {
          "active": true,
          "defaultValue": false,
          "label": "Hungría",
          "validFor": null,
          "value": "HU"
        },
        {
          "active": true,
          "defaultValue": false,
          "label": "Islandia",
          "validFor": null,
          "value": "IS"
        },
        {
          "active": true,
          "defaultValue": false,
          "label": "India",
          "validFor": null,
          "value": "IN"
        },
        {
          "active": true,
          "defaultValue": false,
          "label": "Indonesia",
          "validFor": null,
          "value": "ID"
        },
        {
          "active": true,
          "defaultValue": false,
          "label": "Irak",
          "validFor": null,
          "value": "IQ"
        },
        {
          "active": true,
          "defaultValue": false,
          "label": "República Islámica de Irán",
          "validFor": null,
          "value": "IR"
        },
        {
          "active": true,
          "defaultValue": false,
          "label": "Irlanda",
          "validFor": null,
          "value": "IE"
        },
        {
          "active": true,
          "defaultValue": false,
          "label": "Israel",
          "validFor": null,
          "value": "IL"
        },
        {
          "active": true,
          "defaultValue": false,
          "label": "Italia",
          "validFor": null,
          "value": "IT"
        },
        {
          "active": true,
          "defaultValue": false,
          "label": "Japón",
          "validFor": null,
          "value": "JP"
        },
        {
          "active": true,
          "defaultValue": false,
          "label": "Jamaica",
          "validFor": null,
          "value": "JM"
        },
        {
          "active": true,
          "defaultValue": false,
          "label": "Jordania",
          "validFor": null,
          "value": "JO"
        },
        {
          "active": true,
          "defaultValue": false,
          "label": "Kazajistán",
          "validFor": null,
          "value": "KZ"
        },
        {
          "active": true,
          "defaultValue": false,
          "label": "Kenia",
          "validFor": null,
          "value": "KE"
        },
        {
          "active": true,
          "defaultValue": false,
          "label": "Kiribati",
          "validFor": null,
          "value": "KI"
        },
        {
          "active": true,
          "defaultValue": false,
          "label": "República de Corea",
          "validFor": null,
          "value": "KR"
        },
        {
          "active": true,
          "defaultValue": false,
          "label": "Kuwait",
          "validFor": null,
          "value": "KW"
        },
        {
          "active": true,
          "defaultValue": false,
          "label": "Kirguistán",
          "validFor": null,
          "value": "KG"
        },
        {
          "active": true,
          "defaultValue": false,
          "label": "República Democrática Popular de Laos",
          "validFor": null,
          "value": "LA"
        },
        {
          "active": true,
          "defaultValue": false,
          "label": "Letonia",
          "validFor": null,
          "value": "LV"
        },
        {
          "active": true,
          "defaultValue": false,
          "label": "Líbano",
          "validFor": null,
          "value": "LB"
        },
        {
          "active": true,
          "defaultValue": false,
          "label": "Lesotho",
          "validFor": null,
          "value": "LS"
        },
        {
          "active": true,
          "defaultValue": false,
          "label": "Liberia",
          "validFor": null,
          "value": "LR"
        },
        {
          "active": true,
          "defaultValue": false,
          "label": "Libia",
          "validFor": null,
          "value": "LY"
        },
        {
          "active": true,
          "defaultValue": false,
          "label": "Liechtenstein",
          "validFor": null,
          "value": "LI"
        },
        {
          "active": true,
          "defaultValue": false,
          "label": "Lituania",
          "validFor": null,
          "value": "LT"
        },
        {
          "active": true,
          "defaultValue": false,
          "label": "Luxemburgo",
          "validFor": null,
          "value": "LU"
        },
        {
          "active": true,
          "defaultValue": false,
          "label": "Macao",
          "validFor": null,
          "value": "MO"
        },
        {
          "active": true,
          "defaultValue": false,
          "label": "Antigua República Yugoslava de Macedonia",
          "validFor": null,
          "value": "MK"
        },
        {
          "active": true,
          "defaultValue": false,
          "label": "Madagascar",
          "validFor": null,
          "value": "MG"
        },
        {
          "active": true,
          "defaultValue": false,
          "label": "Malawi",
          "validFor": null,
          "value": "MW"
        },
        {
          "active": true,
          "defaultValue": false,
          "label": "Malasia",
          "validFor": null,
          "value": "MY"
        },
        {
          "active": true,
          "defaultValue": false,
          "label": "Mali",
          "validFor": null,
          "value": "ML"
        },
        {
          "active": true,
          "defaultValue": false,
          "label": "Maldivas",
          "validFor": null,
          "value": "MV"
        },
        {
          "active": true,
          "defaultValue": false,
          "label": "Malta",
          "validFor": null,
          "value": "MT"
        },
        {
          "active": true,
          "defaultValue": false,
          "label": "Marshall Islands",
          "validFor": null,
          "value": "MH"
        },
        {
          "active": true,
          "defaultValue": false,
          "label": "Martinica",
          "validFor": null,
          "value": "MQ"
        },
        {
          "active": true,
          "defaultValue": false,
          "label": "Mauritania",
          "validFor": null,
          "value": "MR"
        },
        {
          "active": true,
          "defaultValue": false,
          "label": "Mauricio",
          "validFor": null,
          "value": "MU"
        },
        {
          "active": true,
          "defaultValue": false,
          "label": "México",
          "validFor": null,
          "value": "MX"
        },
        {
          "active": true,
          "defaultValue": false,
          "label": "Micronesia",
          "validFor": null,
          "value": "FM"
        },
        {
          "active": true,
          "defaultValue": false,
          "label": "República de Moldavia",
          "validFor": null,
          "value": "MD"
        },
        {
          "active": true,
          "defaultValue": false,
          "label": "Mónaco",
          "validFor": null,
          "value": "MC"
        },
        {
          "active": true,
          "defaultValue": false,
          "label": "Montserrat",
          "validFor": null,
          "value": "MS"
        },
        {
          "active": true,
          "defaultValue": false,
          "label": "Marruecos",
          "validFor": null,
          "value": "MA"
        },
        {
          "active": true,
          "defaultValue": false,
          "label": "Mozambique",
          "validFor": null,
          "value": "MZ"
        },
        {
          "active": true,
          "defaultValue": false,
          "label": "Myanmar",
          "validFor": null,
          "value": "MM"
        },
        {
          "active": true,
          "defaultValue": false,
          "label": "Namibia",
          "validFor": null,
          "value": "NA"
        },
        {
          "active": true,
          "defaultValue": false,
          "label": "Nauru",
          "validFor": null,
          "value": "NR"
        },
        {
          "active": true,
          "defaultValue": false,
          "label": "Nepal",
          "validFor": null,
          "value": "NP"
        },
        {
          "active": true,
          "defaultValue": false,
          "label": "Antillas Neerlandesas",
          "validFor": null,
          "value": "AN"
        },
        {
          "active": true,
          "defaultValue": false,
          "label": "Nueva Caledonia",
          "validFor": null,
          "value": "NC"
        },
        {
          "active": true,
          "defaultValue": false,
          "label": "Nueva Zelanda",
          "validFor": null,
          "value": "NZ"
        },
        {
          "active": true,
          "defaultValue": false,
          "label": "Nicaragua",
          "validFor": null,
          "value": "NI"
        },
        {
          "active": true,
          "defaultValue": false,
          "label": "Níger",
          "validFor": null,
          "value": "NE"
        },
        {
          "active": true,
          "defaultValue": false,
          "label": "Nigeria",
          "validFor": null,
          "value": "NG"
        },
        {
          "active": true,
          "defaultValue": false,
          "label": "Países Bajos",
          "validFor": null,
          "value": "NL"
        },
        {
          "active": true,
          "defaultValue": false,
          "label": "Isla Norfolk",
          "validFor": null,
          "value": "NF"
        },
        {
          "active": true,
          "defaultValue": false,
          "label": "Noruega",
          "validFor": null,
          "value": "NO"
        },
        {
          "active": true,
          "defaultValue": false,
          "label": "Islas Marianas del Norte",
          "validFor": null,
          "value": "MP"
        },
        {
          "active": true,
          "defaultValue": false,
          "label": "Omán",
          "validFor": null,
          "value": "OM"
        },
        {
          "active": true,
          "defaultValue": false,
          "label": "Pakistán",
          "validFor": null,
          "value": "PK"
        },
        {
          "active": true,
          "defaultValue": false,
          "label": "Panamá",
          "validFor": null,
          "value": "PA"
        },
        {
          "active": true,
          "defaultValue": false,
          "label": "Papúa Nueva Guinea",
          "validFor": null,
          "value": "PG"
        },
        {
          "active": true,
          "defaultValue": false,
          "label": "Paraguay",
          "validFor": null,
          "value": "PY"
        },
        {
          "active": true,
          "defaultValue": false,
          "label": "Perú",
          "validFor": null,
          "value": "PE"
        },
        {
          "active": true,
          "defaultValue": false,
          "label": "Filipinas",
          "validFor": null,
          "value": "PH"
        },
        {
          "active": true,
          "defaultValue": false,
          "label": "Polonia",
          "validFor": null,
          "value": "PL"
        },
        {
          "active": true,
          "defaultValue": false,
          "label": "Portugal",
          "validFor": null,
          "value": "PT"
        },
        {
          "active": true,
          "defaultValue": false,
          "label": "Qatar",
          "validFor": null,
          "value": "QA"
        },
        {
          "active": true,
          "defaultValue": false,
          "label": "Reunión",
          "validFor": null,
          "value": "RE"
        },
        {
          "active": true,
          "defaultValue": false,
          "label": "Rumanía",
          "validFor": null,
          "value": "RO"
        },
        {
          "active": true,
          "defaultValue": false,
          "label": "Federación de Rusia",
          "validFor": null,
          "value": "RU"
        },
        {
          "active": true,
          "defaultValue": false,
          "label": "Ruanda",
          "validFor": null,
          "value": "RW"
        },
        {
          "active": true,
          "defaultValue": false,
          "label": "Santa Elena, Ascensión y Tristán de Acuña",
          "validFor": null,
          "value": "SH"
        },
        {
          "active": true,
          "defaultValue": false,
          "label": "San Cristóbal y Nieves",
          "validFor": null,
          "value": "KN"
        },
        {
          "active": true,
          "defaultValue": false,
          "label": "Santa Lucía",
          "validFor": null,
          "value": "LC"
        },
        {
          "active": true,
          "defaultValue": false,
          "label": "San Vicente y las Granadinas",
          "validFor": null,
          "value": "VC"
        },
        {
          "active": true,
          "defaultValue": false,
          "label": "Samoa",
          "validFor": null,
          "value": "WS"
        },
        {
          "active": true,
          "defaultValue": false,
          "label": "San Marino",
          "validFor": null,
          "value": "SM"
        },
        {
          "active": true,
          "defaultValue": false,
          "label": "Santo Tomé y Príncipe",
          "validFor": null,
          "value": "ST"
        },
        {
          "active": true,
          "defaultValue": false,
          "label": "Arabia Saudí",
          "validFor": null,
          "value": "SA"
        },
        {
          "active": true,
          "defaultValue": false,
          "label": "Senegal",
          "validFor": null,
          "value": "SN"
        },
        {
          "active": true,
          "defaultValue": false,
          "label": "Serbia y Montenegro",
          "validFor": null,
          "value": "CS"
        },
        {
          "active": true,
          "defaultValue": false,
          "label": "Seychelles",
          "validFor": null,
          "value": "SC"
        },
        {
          "active": true,
          "defaultValue": false,
          "label": "Sierra Leona",
          "validFor": null,
          "value": "SL"
        },
        {
          "active": true,
          "defaultValue": false,
          "label": "Singapur",
          "validFor": null,
          "value": "SG"
        },
        {
          "active": true,
          "defaultValue": false,
          "label": "Eslovaquia",
          "validFor": null,
          "value": "SK"
        },
        {
          "active": true,
          "defaultValue": false,
          "label": "Eslovenia",
          "validFor": null,
          "value": "SI"
        },
        {
          "active": true,
          "defaultValue": false,
          "label": "Islas Salomón",
          "validFor": null,
          "value": "SB"
        },
        {
          "active": true,
          "defaultValue": false,
          "label": "Somalia",
          "validFor": null,
          "value": "SO"
        },
        {
          "active": true,
          "defaultValue": false,
          "label": "Sudáfrica",
          "validFor": null,
          "value": "ZA"
        },
        {
          "active": true,
          "defaultValue": false,
          "label": "España",
          "validFor": null,
          "value": "ES"
        },
        {
          "active": true,
          "defaultValue": false,
          "label": "Sri Lanka",
          "validFor": null,
          "value": "LK"
        },
        {
          "active": true,
          "defaultValue": false,
          "label": "Sudán",
          "validFor": null,
          "value": "SD"
        },
        {
          "active": true,
          "defaultValue": false,
          "label": "Surinam",
          "validFor": null,
          "value": "SR"
        },
        {
          "active": true,
          "defaultValue": false,
          "label": "Suazilandia",
          "validFor": null,
          "value": "SZ"
        },
        {
          "active": true,
          "defaultValue": false,
          "label": "Suecia",
          "validFor": null,
          "value": "SE"
        },
        {
          "active": true,
          "defaultValue": false,
          "label": "Suiza",
          "validFor": null,
          "value": "CH"
        },
        {
          "active": true,
          "defaultValue": false,
          "label": "República Árabe Siria",
          "validFor": null,
          "value": "SY"
        },
        {
          "active": true,
          "defaultValue": false,
          "label": "Taiwán",
          "validFor": null,
          "value": "TW"
        },
        {
          "active": true,
          "defaultValue": false,
          "label": "Tayikistán",
          "validFor": null,
          "value": "TJ"
        },
        {
          "active": true,
          "defaultValue": false,
          "label": "República Unida de Tanzania",
          "validFor": null,
          "value": "TZ"
        },
        {
          "active": true,
          "defaultValue": false,
          "label": "Tailandia",
          "validFor": null,
          "value": "TH"
        },
        {
          "active": true,
          "defaultValue": false,
          "label": "Timor Oriental",
          "validFor": null,
          "value": "TL"
        },
        {
          "active": true,
          "defaultValue": false,
          "label": "Togo",
          "validFor": null,
          "value": "TG"
        },
        {
          "active": true,
          "defaultValue": false,
          "label": "Tokelau",
          "validFor": null,
          "value": "TK"
        },
        {
          "active": true,
          "defaultValue": false,
          "label": "Tonga",
          "validFor": null,
          "value": "TO"
        },
        {
          "active": true,
          "defaultValue": false,
          "label": "Trinidad y Tobago",
          "validFor": null,
          "value": "TT"
        },
        {
          "active": true,
          "defaultValue": false,
          "label": "Túnez",
          "validFor": null,
          "value": "TN"
        },
        {
          "active": true,
          "defaultValue": false,
          "label": "Turquía",
          "validFor": null,
          "value": "TR"
        },
        {
          "active": true,
          "defaultValue": false,
          "label": "Turkmenistán",
          "validFor": null,
          "value": "TM"
        },
        {
          "active": true,
          "defaultValue": false,
          "label": "Islas Turcas y Caicos",
          "validFor": null,
          "value": "TC"
        },
        {
          "active": true,
          "defaultValue": false,
          "label": "Tuvalu",
          "validFor": null,
          "value": "TV"
        },
        {
          "active": true,
          "defaultValue": false,
          "label": "Uganda",
          "validFor": null,
          "value": "UG"
        },
        {
          "active": true,
          "defaultValue": false,
          "label": "Ucrania",
          "validFor": null,
          "value": "UA"
        },
        {
          "active": true,
          "defaultValue": false,
          "label": "Emiratos Árabes Unidos",
          "validFor": null,
          "value": "AE"
        },
        {
          "active": true,
          "defaultValue": false,
          "label": "Reino Unido",
          "validFor": null,
          "value": "GB"
        },
        {
          "active": true,
          "defaultValue": false,
          "label": "Estados Unidos",
          "validFor": null,
          "value": "US"
        },
        {
          "active": true,
          "defaultValue": false,
          "label": "Islas ultramarinas menores de Estados Unidos",
          "validFor": null,
          "value": "UM"
        },
        {
          "active": true,
          "defaultValue": false,
          "label": "Uruguay",
          "validFor": null,
          "value": "UY"
        },
        {
          "active": true,
          "defaultValue": false,
          "label": "Uzbekistán",
          "validFor": null,
          "value": "UZ"
        },
        {
          "active": true,
          "defaultValue": false,
          "label": "Vanuatu",
          "validFor": null,
          "value": "VU"
        },
        {
          "active": true,
          "defaultValue": false,
          "label": "República Bolivariana de Venezuela",
          "validFor": null,
          "value": "VE"
        },
        {
          "active": true,
          "defaultValue": false,
          "label": "Vietnam",
          "validFor": null,
          "value": "VN"
        },
        {
          "active": true,
          "defaultValue": false,
          "label": "Islas Vírgenes Británicas",
          "validFor": null,
          "value": "VG"
        },
        {
          "active": true,
          "defaultValue": false,
          "label": "Yemen",
          "validFor": null,
          "value": "YE"
        },
        {
          "active": true,
          "defaultValue": false,
          "label": "Zambia",
          "validFor": null,
          "value": "ZM"
        },
        {
          "active": true,
          "defaultValue": false,
          "label": "Zimbabue",
          "validFor": null,
          "value": "ZW"
        }
      ],
      "referenceTo": [],
      "relationshipName": null,
      "sortable": false,
      "type": "picklist"
    },
    {
      "aggregatable": false,
      "custom": false,
      "defaultValue": null,
      "extraTypeInfo": null,
      "filterable": true,
      "groupable": true,
      "inlineHelpText": null,
      "label": "Código postal",
      "name": "Zip",
      "nillable": true,
      "picklistValues": [],
      "referenceTo": [],
      "relationshipName": null,
      "sortable": false,
      "type": "string"
    },
    {
      "aggregatable": false,
      "custom": false,
      "defaultValue": null,
      "extraTypeInfo": null,
      "filterable": true,
      "groupable": true,
      "inlineHelpText": null,
      "label": "Tipo de ubicación",
      "name": "Site",
      "nillable": true,
      "picklistValues": [
        {
          "active": true,
          "defaultValue": false,
          "label": "Sucursal",
          "validFor": null,
          "value": "Branch"
        },
        {
          "active": true,
          "defaultValue": false,
          "label": "Oficina central",
          "validFor": null,
          "value": "Headquarters"
        },
        {
          "active": true,
          "defaultValue": false,
          "label": "Ubicación única",
          "validFor": null,
          "value": "Single Location"
        }
      ],
      "referenceTo": [],
      "relationshipName": null,
      "sortable": false,
      "type": "picklist"
    },
    {
      "aggregatable": false,
      "custom": false,
      "defaultValue": null,
      "extraTypeInfo": null,
      "filterable": false,
      "groupable": true,
      "inlineHelpText": null,
      "label": "Sector",
      "name": "Industry",
      "nillable": true,
      "picklistValues": [],
      "referenceTo": [],
      "relationshipName": null,
      "sortable": false,
      "type": "string"
    },
    {
      "aggregatable": false,
      "custom": false,
      "defaultValue": null,
      "extraTypeInfo": null,
      "filterable": true,
      "groupable": true,
      "inlineHelpText": null,
      "label": "Número de empleados",
      "name": "NumberOfEmployees",
      "nillable": true,
      "picklistValues": [],
      "referenceTo": [],
      "relationshipName": null,
      "sortable": false,
      "type": "int"
    },
    {
      "aggregatable": false,
      "custom": false,
      "defaultValue": null,
      "extraTypeInfo": null,
      "filterable": true,
      "groupable": false,
      "inlineHelpText": null,
      "label": "Ingresos anuales",
      "name": "AnnualRevenue",
      "nillable": true,
      "picklistValues": [],
      "referenceTo": [],
      "relationshipName": null,
      "sortable": false,
      "type": "currency"
    },
    {
      "aggregatable": false,
      "custom": false,
      "defaultValue": null,
      "extraTypeInfo": null,
      "filterable": true,
      "groupable": true,
      "inlineHelpText": null,
      "label": "Número Duns",
      "name": "DunsNumber",
      "nillable": true,
      "picklistValues": [],
      "referenceTo": [],
      "relationshipName": null,
      "sortable": false,
      "type": "string"
    },
    {
      "aggregatable": false,
      "custom": false,
      "defaultValue": null,
      "extraTypeInfo": null,
      "filterable": true,
      "groupable": true,
      "inlineHelpText": null,
      "label": "Código NAICS",
      "name": "NaicsCode",
      "nillable": true,
      "picklistValues": [],
      "referenceTo": [],
      "relationshipName": null,
      "sortable": false,
      "type": "string"
    },
    {
      "aggregatable": false,
      "custom": false,
      "defaultValue": null,
      "extraTypeInfo": null,
      "filterable": false,
      "groupable": true,
      "inlineHelpText": null,
      "label": "Descripción de NAICS",
      "name": "NaicsDesc",
      "nillable": true,
      "picklistValues": [],
      "referenceTo": [],
      "relationshipName": null,
      "sortable": false,
      "type": "string"
    },
    {
      "aggregatable": false,
      "custom": false,
      "defaultValue": null,
      "extraTypeInfo": null,
      "filterable": true,
      "groupable": true,
      "inlineHelpText": null,
      "label": "Código SIC",
      "name": "Sic",
      "nillable": true,
      "picklistValues": [],
      "referenceTo": [],
      "relationshipName": null,
      "sortable": false,
      "type": "string"
    },
    {
      "aggregatable": false,
      "custom": false,
      "defaultValue": null,
      "extraTypeInfo": null,
      "filterable": false,
      "groupable": true,
      "inlineHelpText": null,
      "label": "Descripción de SIC",
      "name": "SicDesc",
      "nillable": true,
      "picklistValues": [],
      "referenceTo": [],
      "relationshipName": null,
      "sortable": false,
      "type": "string"
    },
    {
      "aggregatable": false,
      "custom": false,
      "defaultValue": null,
      "extraTypeInfo": null,
      "filterable": true,
      "groupable": true,
      "inlineHelpText": null,
      "label": "Estado de propiedad",
      "name": "Ownership",
      "nillable": true,
      "picklistValues": [],
      "referenceTo": [],
      "relationshipName": null,
      "sortable": false,
      "type": "string"
    },
    {
      "aggregatable": false,
      "custom": false,
      "defaultValue": false,
      "extraTypeInfo": null,
      "filterable": false,
      "groupable": true,
      "inlineHelpText": null,
      "label": "En propiedad",
      "name": "IsOwned",
      "nillable": false,
      "picklistValues": [],
      "referenceTo": [],
      "relationshipName": null,
      "sortable": false,
      "type": "boolean"
    },
    {
      "aggregatable": false,
      "custom": false,
      "defaultValue": null,
      "extraTypeInfo": null,
      "filterable": false,
      "groupable": true,
      "inlineHelpText": null,
      "label": "Símbolo de teletipo del mercado de valores",
      "name": "TickerSymbol",
      "nillable": true,
      "picklistValues": [],
      "referenceTo": [],
      "relationshipName": null,
      "sortable": false,
      "type": "string"
    },
    {
      "aggregatable": false,
      "custom": false,
      "defaultValue": null,
      "extraTypeInfo": null,
      "filterable": false,
      "groupable": true,
      "inlineHelpText": null,
      "label": "Estilo de la marca",
      "name": "TradeStyle",
      "nillable": true,
      "picklistValues": [],
      "referenceTo": [],
      "relationshipName": null,
      "sortable": false,
      "type": "string"
    },
    {
      "aggregatable": false,
      "custom": false,
      "defaultValue": null,
      "extraTypeInfo": null,
      "filterable": true,
      "groupable": true,
      "inlineHelpText": null,
      "label": "Empresa o sitio web",
      "name": "Website",
      "nillable": true,
      "picklistValues": [],
      "referenceTo": [],
      "relationshipName": null,
      "sortable": false,
      "type": "url"
    },
    {
      "aggregatable": false,
      "custom": false,
      "defaultValue": null,
      "extraTypeInfo": null,
      "filterable": false,
      "groupable": true,
      "inlineHelpText": null,
      "label": "Fecha de creación de la empresa",
      "name": "YearStarted",
      "nillable": true,
      "picklistValues": [],
      "referenceTo": [],
      "relationshipName": null,
      "sortable": false,
      "type": "string"
    },
    {
      "aggregatable": false,
      "custom": false,
      "defaultValue": null,
      "extraTypeInfo": null,
      "filterable": false,
      "groupable": true,
      "inlineHelpText": null,
      "label": "Contactos activos",
      "name": "ActiveContacts",
      "nillable": true,
      "picklistValues": [],
      "referenceTo": [],
      "relationshipName": null,
      "sortable": true,
      "type": "int"
    },
    {
      "aggregatable": false,
      "custom": false,
      "defaultValue": null,
      "extraTypeInfo": null,
      "filterable": false,
      "groupable": false,
      "inlineHelpText": null,
      "label": "Fecha actualizada",
      "name": "UpdatedDate",
      "nillable": true,
      "picklistValues": [],
      "referenceTo": [],
      "relationshipName": null,
      "sortable": true,
      "type": "datetime"
    },
    {
      "aggregatable": false,
      "custom": false,
      "defaultValue": null,
      "extraTypeInfo": null,
      "filterable": false,
      "groupable": true,
      "inlineHelpText": null,
      "label": "Rango en Fortune",
      "name": "FortuneRank",
      "nillable": true,
      "picklistValues": [],
      "referenceTo": [],
      "relationshipName": null,
      "sortable": false,
      "type": "int"
    },
    {
      "aggregatable": false,
      "custom": false,
      "defaultValue": null,
      "extraTypeInfo": null,
      "filterable": false,
      "groupable": true,
      "inlineHelpText": null,
      "label": "Incluido en S&P 500",
      "name": "IncludedInSnP500",
      "nillable": true,
      "picklistValues": [],
      "referenceTo": [],
      "relationshipName": null,
      "sortable": false,
      "type": "string"
    },
    {
      "aggregatable": false,
      "custom": false,
      "defaultValue": null,
      "extraTypeInfo": null,
      "filterable": false,
      "groupable": true,
      "inlineHelpText": null,
      "label": "Mediciones de área de instalaciones",
      "name": "PremisesMeasure",
      "nillable": true,
      "picklistValues": [],
      "referenceTo": [],
      "relationshipName": null,
      "sortable": false,
      "type": "int"
    },
    {
      "aggregatable": false,
      "custom": false,
      "defaultValue": null,
      "extraTypeInfo": null,
      "filterable": false,
      "groupable": true,
      "inlineHelpText": null,
      "label": "Texto de fiabilidad de las mediciones de área de instalaciones",
      "name": "PremisesMeasureReliability",
      "nillable": true,
      "picklistValues": [],
      "referenceTo": [],
      "relationshipName": null,
      "sortable": false,
      "type": "string"
    },
    {
      "aggregatable": false,
      "custom": false,
      "defaultValue": null,
      "extraTypeInfo": null,
      "filterable": false,
      "groupable": true,
      "inlineHelpText": null,
      "label": "Unidad de medición del área de permisos",
      "name": "PremisesMeasureUnit",
      "nillable": true,
      "picklistValues": [],
      "referenceTo": [],
      "relationshipName": null,
      "sortable": false,
      "type": "string"
    },
    {
      "aggregatable": false,
      "custom": false,
      "defaultValue": null,
      "extraTypeInfo": null,
      "filterable": false,
      "groupable": false,
      "inlineHelpText": null,
      "label": "Tipo de crecimiento de la cantidad de empleados",
      "name": "EmployeeQuantityGrowthRate",
      "nillable": true,
      "picklistValues": [],
      "referenceTo": [],
      "relationshipName": null,
      "sortable": false,
      "type": "double"
    },
    {
      "aggregatable": false,
      "custom": false,
      "defaultValue": null,
      "extraTypeInfo": null,
      "filterable": false,
      "groupable": false,
      "inlineHelpText": null,
      "label": "Tipo de crecimiento del volumen de ventas",
      "name": "SalesTurnoverGrowthRate",
      "nillable": true,
      "picklistValues": [],
      "referenceTo": [],
      "relationshipName": null,
      "sortable": false,
      "type": "double"
    },
    {
      "aggregatable": false,
      "custom": false,
      "defaultValue": null,
      "extraTypeInfo": null,
      "filterable": false,
      "groupable": true,
      "inlineHelpText": null,
      "label": "Empleado del año anterior",
      "name": "PriorYearEmployees",
      "nillable": true,
      "picklistValues": [],
      "referenceTo": [],
      "relationshipName": null,
      "sortable": false,
      "type": "int"
    },
    {
      "aggregatable": false,
      "custom": false,
      "defaultValue": null,
      "extraTypeInfo": null,
      "filterable": false,
      "groupable": false,
      "inlineHelpText": null,
      "label": "Ingresos del año anterior",
      "name": "PriorYearRevenue",
      "nillable": true,
      "picklistValues": [],
      "referenceTo": [],
      "relationshipName": null,
      "sortable": false,
      "type": "currency"
    },
    {
      "aggregatable": false,
      "custom": false,
      "defaultValue": false,
      "extraTypeInfo": null,
      "filterable": false,
      "groupable": true,
      "inlineHelpText": null,
      "label": "En CRM",
      "name": "IsInCrm",
      "nillable": false,
      "picklistValues": [],
      "referenceTo": [],
      "relationshipName": null,
      "sortable": false,
      "type": "boolean"
    },
    {
      "aggregatable": false,
      "custom": false,
      "defaultValue": null,
      "extraTypeInfo": null,
      "filterable": false,
      "groupable": true,
      "inlineHelpText": null,
      "label": "Dirección",
      "name": "FullAddress",
      "nillable": true,
      "picklistValues": [],
      "referenceTo": [],
      "relationshipName": null,
      "sortable": false,
      "type": "string"
    },
    {
      "aggregatable": false,
      "custom": false,
      "defaultValue": null,
      "extraTypeInfo": null,
      "filterable": false,
      "groupable": true,
      "inlineHelpText": null,
      "label": "Códigos de sector",
      "name": "SicCodeDesc",
      "nillable": true,
      "picklistValues": [],
      "referenceTo": [],
      "relationshipName": null,
      "sortable": false,
      "type": "string"
    }
  ],
  "label": "Empresa de Data.com",
  "childRelationships": [],
  "custom": false,
  "name": "DatacloudCompany",
  "queryable": true
}