{
  "fields": [
    {
      "aggregatable": true,
      "custom": false,
      "defaultValue": null,
      "extraTypeInfo": null,
      "filterable": true,
      "groupable": true,
      "inlineHelpText": null,
      "label": "Id. de Historial de ubicación",
      "name": "Id",
      "nillable": false,
      "picklistValues": [],
      "referenceTo": [],
      "relationshipName": null,
      "sortable": true,
      "type": "id"
    },
    {
      "aggregatable": false,
      "custom": false,
      "defaultValue": false,
      "extraTypeInfo": null,
      "filterable": true,
      "groupable": true,
      "inlineHelpText": null,
      "label": "Eliminado",
      "name": "IsDeleted",
      "nillable": false,
      "picklistValues": [],
      "referenceTo": [],
      "relationshipName": null,
      "sortable": true,
      "type": "boolean"
    },
    {
      "aggregatable": true,
      "custom": false,
      "defaultValue": null,
      "extraTypeInfo": null,
      "filterable": true,
      "groupable": true,
      "inlineHelpText": null,
      "label": "Id. de Ubicación",
      "name": "LocationId",
      "nillable": false,
      "picklistValues": [],
      "referenceTo": [
        "Location"
      ],
      "relationshipName": "Location",
      "sortable": true,
      "type": "reference"
    },
    {
      "aggregatable": true,
      "custom": false,
      "defaultValue": null,
      "extraTypeInfo": null,
      "filterable": true,
      "groupable": true,
      "inlineHelpText": null,
      "label": "Creado por el Id.",
      "name": "CreatedById",
      "nillable": false,
      "picklistValues": [],
      "referenceTo": [
        "User"
      ],
      "relationshipName": "CreatedBy",
      "sortable": true,
      "type": "reference"
    },
    {
      "aggregatable": true,
      "custom": false,
      "defaultValue": null,
      "extraTypeInfo": null,
      "filterable": true,
      "groupable": false,
      "inlineHelpText": null,
      "label": "Fecha de creación",
      "name": "CreatedDate",
      "nillable": false,
      "picklistValues": [],
      "referenceTo": [],
      "relationshipName": null,
      "sortable": true,
      "type": "datetime"
    },
    {
      "aggregatable": true,
      "custom": false,
      "defaultValue": null,
      "extraTypeInfo": null,
      "filterable": true,
      "groupable": true,
      "inlineHelpText": null,
      "label": "Campo modificado",
      "name": "Field",
      "nillable": false,
      "picklistValues": [
        {
          "active": true,
          "defaultValue": false,
          "label": "Creado.",
          "validFor": null,
          "value": "created"
        },
        {
          "active": true,
          "defaultValue": false,
          "label": "Descripción",
          "validFor": null,
          "value": "Description"
        },
        {
          "active": true,
          "defaultValue": false,
          "label": "Evento de noticias en tiempo real",
          "validFor": null,
          "value": "feedEvent"
        },
        {
          "active": true,
          "defaultValue": false,
          "label": "Fecha de apertura",
          "validFor": null,
          "value": "OpenDate"
        },
        {
          "active": true,
          "defaultValue": false,
          "label": "Fecha de cierre",
          "validFor": null,
          "value": "CloseDate"
        },
        {
          "active": true,
          "defaultValue": false,
          "label": "Fecha de finalización de construcción",
          "validFor": null,
          "value": "ConstructionEndDate"
        },
        {
          "active": true,
          "defaultValue": false,
          "label": "Fecha de finalización de remodelación",
          "validFor": null,
          "value": "RemodelEndDate"
        },
        {
          "active": true,
          "defaultValue": false,
          "label": "Fecha de inicio de construcción",
          "validFor": null,
          "value": "ConstructionStartDate"
        },
        {
          "active": true,
          "defaultValue": false,
          "label": "Fecha de inicio de remodelación",
          "validFor": null,
          "value": "RemodelStartDate"
        },
        {
          "active": true,
          "defaultValue": false,
          "label": "Fecha de posesión",
          "validFor": null,
          "value": "PossessionDate"
        },
        {
          "active": true,
          "defaultValue": false,
          "label": "Instrucciones para llegar en coche",
          "validFor": null,
          "value": "DrivingDirections"
        },
        {
          "active": true,
          "defaultValue": false,
          "label": "Latitud",
          "validFor": null,
          "value": "Latitude"
        },
        {
          "active": true,
          "defaultValue": false,
          "label": "Logotipo",
          "validFor": null,
          "value": "Logo"
        },
        {
          "active": true,
          "defaultValue": false,
          "label": "Longitud",
          "validFor": null,
          "value": "Longitude"
        },
        {
          "active": true,
          "defaultValue": false,
          "label": "Nivel de ubicación",
          "validFor": null,
          "value": "LocationLevel"
        },
        {
          "active": true,
          "defaultValue": false,
          "label": "Nombre de ubicación",
          "validFor": null,
          "value": "Name"
        },
        {
          "active": true,
          "defaultValue": false,
          "label": "Persona fusionada",
          "validFor": null,
          "value": "individualMerged"
        },
        {
          "active": true,
          "defaultValue": false,
          "label": "Propietario",
          "validFor": null,
          "value": "Owner"
        },
        {
          "active": true,
          "defaultValue": false,
          "label": "Propietario (aceptado)",
          "validFor": null,
          "value": "ownerAccepted"
        },
        {
          "active": true,
          "defaultValue": false,
          "label": "Propietario (asignación)",
          "validFor": null,
          "value": "ownerAssignment"
        },
        {
          "active": true,
          "defaultValue": false,
          "label": "Referencia externa",
          "validFor": null,
          "value": "ExternalReference"
        },
        {
          "active": true,
          "defaultValue": false,
          "label": "Registro bloqueado.",
          "validFor": null,
          "value": "locked"
        },
        {
          "active": true,
          "defaultValue": false,
          "label": "Registro desbloqueado.",
          "validFor": null,
          "value": "unlocked"
        },
        {
          "active": true,
          "defaultValue": false,
          "label": "Sincronización con OCI",
          "validFor": null,
          "value": "ShouldSyncWithOci"
        },
        {
          "active": true,
          "defaultValue": false,
          "label": "Tipo de ubicación",
          "validFor": null,
          "value": "LocationType"
        },
        {
          "active": true,
          "defaultValue": false,
          "label": "Ubicación",
          "validFor": null,
          "value": "Location"
        },
        {
          "active": true,
          "defaultValue": false,
          "label": "Ubicación de inventario",
          "validFor": null,
          "value": "IsInventoryLocation"
        },
        {
          "active": true,
          "defaultValue": false,
          "label": "Ubicación móvil",
          "validFor": null,
          "value": "IsMobile"
        },
        {
          "active": true,
          "defaultValue": false,
          "label": "Ubicación principal",
          "validFor": null,
          "value": "ParentLocation"
        },
        {
          "active": true,
          "defaultValue": false,
          "label": "Ubicación raíz",
          "validFor": null,
          "value": "RootLocation"
        },
        {
          "active": true,
          "defaultValue": false,
          "label": "Zona horaria",
          "validFor": null,
          "value": "TimeZone"
        }
      ],
      "referenceTo": [],
      "relationshipName": null,
      "sortable": true,
      "type": "picklist"
    },
    {
      "aggregatable": false,
      "custom": false,
      "defaultValue": null,
      "extraTypeInfo": null,
      "filterable": false,
      "groupable": false,
      "inlineHelpText": null,
      "label": "Valor anterior",
      "name": "OldValue",
      "nillable": true,
      "picklistValues": [],
      "referenceTo": [],
      "relationshipName": null,
      "sortable": true,
      "type": "anyType"
    },
    {
      "aggregatable": false,
      "custom": false,
      "defaultValue": null,
      "extraTypeInfo": null,
      "filterable": false,
      "groupable": false,
      "inlineHelpText": null,
      "label": "Valor nuevo",
      "name": "NewValue",
      "nillable": true,
      "picklistValues": [],
      "referenceTo": [],
      "relationshipName": null,
      "sortable": true,
      "type": "anyType"
    }
  ],
  "label": "Historial de ubicación",
  "childRelationships": [],
  "custom": false,
  "name": "LocationHistory",
  "queryable": true
}