{
  "fields": [
    {
      "aggregatable": true,
      "custom": false,
      "defaultValue": null,
      "extraTypeInfo": null,
      "filterable": true,
      "groupable": true,
      "inlineHelpText": null,
      "label": "Id. de elemento de noticias en tiempo real",
      "name": "Id",
      "nillable": false,
      "picklistValues": [],
      "referenceTo": [],
      "relationshipName": null,
      "sortable": true,
      "type": "id"
    },
    {
      "aggregatable": true,
      "custom": false,
      "defaultValue": null,
      "extraTypeInfo": null,
      "filterable": true,
      "groupable": true,
      "inlineHelpText": null,
      "label": "Id. de principal",
      "name": "ParentId",
      "nillable": false,
      "picklistValues": [],
      "referenceTo": [
        "Product2"
      ],
      "relationshipName": "Parent",
      "sortable": true,
      "type": "reference"
    },
    {
      "aggregatable": true,
      "custom": false,
      "defaultValue": null,
      "extraTypeInfo": null,
      "filterable": true,
      "groupable": true,
      "inlineHelpText": null,
      "label": "Tipo de elemento de noticias",
      "name": "Type",
      "nillable": true,
      "picklistValues": [
        {
          "active": true,
          "defaultValue": false,
          "label": "Cambio supervisado",
          "validFor": null,
          "value": "TrackedChange"
        },
        {
          "active": true,
          "defaultValue": false,
          "label": "Estado de usuario",
          "validFor": null,
          "value": "UserStatus"
        },
        {
          "active": true,
          "defaultValue": false,
          "label": "Publicación de texto",
          "validFor": null,
          "value": "TextPost"
        },
        {
          "active": true,
          "defaultValue": false,
          "label": "Publicación de texto avanzado",
          "validFor": null,
          "value": "AdvancedTextPost"
        },
        {
          "active": true,
          "defaultValue": false,
          "label": "Publicación de enlace",
          "validFor": null,
          "value": "LinkPost"
        },
        {
          "active": true,
          "defaultValue": false,
          "label": "Publicación de contenido",
          "validFor": null,
          "value": "ContentPost"
        },
        {
          "active": true,
          "defaultValue": false,
          "label": "Votación",
          "validFor": null,
          "value": "PollPost"
        },
        {
          "active": true,
          "defaultValue": false,
          "label": "Agradecimiento de WDC",
          "validFor": null,
          "value": "RypplePost"
        },
        {
          "active": true,
          "defaultValue": false,
          "label": "Publicación de perfil de habilidades",
          "validFor": null,
          "value": "ProfileSkillPost"
        },
        {
          "active": true,
          "defaultValue": false,
          "label": "Instantánea de componentes del panel",
          "validFor": null,
          "value": "DashboardComponentSnapshot"
        },
        {
          "active": true,
          "defaultValue": false,
          "label": "Publicación de aprobación",
          "validFor": null,
          "value": "ApprovalPost"
        },
        {
          "active": true,
          "defaultValue": false,
          "label": "Noticias en tiempo real de comentario de casos",
          "validFor": null,
          "value": "CaseCommentPost"
        },
        {
          "active": true,
          "defaultValue": false,
          "label": "Publicación de respuesta",
          "validFor": null,
          "value": "ReplyPost"
        },
        {
          "active": true,
          "defaultValue": false,
          "label": "Noticias en tiempo real de mensajes de correo electrónico",
          "validFor": null,
          "value": "EmailMessageEvent"
        },
        {
          "active": true,
          "defaultValue": false,
          "label": "Noticias en tiempo real de registro de llamadas",
          "validFor": null,
          "value": "CallLogPost"
        },
        {
          "active": true,
          "defaultValue": false,
          "label": "Cambiar noticias en tiempo real de estado",
          "validFor": null,
          "value": "ChangeStatusPost"
        },
        {
          "active": true,
          "defaultValue": false,
          "label": "Artículo adjunto",
          "validFor": null,
          "value": "AttachArticleEvent"
        },
        {
          "active": true,
          "defaultValue": false,
          "label": "Evento clave",
          "validFor": null,
          "value": "MilestoneEvent"
        },
        {
          "active": true,
          "defaultValue": false,
          "label": "Cambio de actividad",
          "validFor": null,
          "value": "ActivityEvent"
        },
        {
          "active": true,
          "defaultValue": false,
          "label": "Publicación de transcripción de chat",
          "validFor": null,
          "value": "ChatTranscriptPost"
        },
        {
          "active": true,
          "defaultValue": false,
          "label": "Grupo de colaboración creado",
          "validFor": null,
          "value": "CollaborationGroupCreated"
        },
        {
          "active": true,
          "defaultValue": false,
          "label": "Grupo de colaboración reactivado",
          "validFor": null,
          "value": "CollaborationGroupUnarchived"
        },
        {
          "active": true,
          "defaultValue": false,
          "label": "Publicación social",
          "validFor": null,
          "value": "SocialPost"
        },
        {
          "active": true,
          "defaultValue": false,
          "label": "Publicación de pregunta",
          "validFor": null,
          "value": "QuestionPost"
        },
        {
          "active": true,
          "defaultValue": false,
          "label": "Publicación de Facebook",
          "validFor": null,
          "value": "FacebookPost"
        },
        {
          "active": true,
          "defaultValue": false,
          "label": "Publicación de plantilla básica",
          "validFor": null,
          "value": "BasicTemplateFeedItem"
        },
        {
          "active": true,
          "defaultValue": false,
          "label": "Registro creado",
          "validFor": null,
          "value": "CreateRecordEvent"
        },
        {
          "active": true,
          "defaultValue": false,
          "label": "Lienzo",
          "validFor": null,
          "value": "CanvasPost"
        },
        {
          "active": true,
          "defaultValue": false,
          "label": "a",
          "validFor": null,
          "value": "AnnouncementPost"
        }
      ],
      "referenceTo": [],
      "relationshipName": null,
      "sortable": true,
      "type": "picklist"
    },
    {
      "aggregatable": true,
      "custom": false,
      "defaultValue": null,
      "extraTypeInfo": null,
      "filterable": true,
      "groupable": true,
      "inlineHelpText": null,
      "label": "Creado por el Id.",
      "name": "CreatedById",
      "nillable": false,
      "picklistValues": [],
      "referenceTo": [
        "User"
      ],
      "relationshipName": "CreatedBy",
      "sortable": true,
      "type": "reference"
    },
    {
      "aggregatable": true,
      "custom": false,
      "defaultValue": null,
      "extraTypeInfo": null,
      "filterable": true,
      "groupable": false,
      "inlineHelpText": null,
      "label": "Fecha de creación",
      "name": "CreatedDate",
      "nillable": false,
      "picklistValues": [],
      "referenceTo": [],
      "relationshipName": null,
      "sortable": true,
      "type": "datetime"
    },
    {
      "aggregatable": false,
      "custom": false,
      "defaultValue": false,
      "extraTypeInfo": null,
      "filterable": true,
      "groupable": true,
      "inlineHelpText": null,
      "label": "Eliminado",
      "name": "IsDeleted",
      "nillable": false,
      "picklistValues": [],
      "referenceTo": [],
      "relationshipName": null,
      "sortable": true,
      "type": "boolean"
    },
    {
      "aggregatable": true,
      "custom": false,
      "defaultValue": null,
      "extraTypeInfo": null,
      "filterable": true,
      "groupable": false,
      "inlineHelpText": null,
      "label": "Fecha de la última modificación",
      "name": "LastModifiedDate",
      "nillable": false,
      "picklistValues": [],
      "referenceTo": [],
      "relationshipName": null,
      "sortable": true,
      "type": "datetime"
    },
    {
      "aggregatable": true,
      "custom": false,
      "defaultValue": null,
      "extraTypeInfo": null,
      "filterable": true,
      "groupable": false,
      "inlineHelpText": null,
      "label": "Modstamp del sistema",
      "name": "SystemModstamp",
      "nillable": false,
      "picklistValues": [],
      "referenceTo": [],
      "relationshipName": null,
      "sortable": true,
      "type": "datetime"
    },
    {
      "aggregatable": true,
      "custom": false,
      "defaultValue": null,
      "extraTypeInfo": null,
      "filterable": true,
      "groupable": true,
      "inlineHelpText": null,
      "label": "Recuento de comentarios",
      "name": "CommentCount",
      "nillable": false,
      "picklistValues": [],
      "referenceTo": [],
      "relationshipName": null,
      "sortable": true,
      "type": "int"
    },
    {
      "aggregatable": true,
      "custom": false,
      "defaultValue": null,
      "extraTypeInfo": null,
      "filterable": true,
      "groupable": true,
      "inlineHelpText": null,
      "label": "Me gusta el recuento",
      "name": "LikeCount",
      "nillable": false,
      "picklistValues": [],
      "referenceTo": [],
      "relationshipName": null,
      "sortable": true,
      "type": "int"
    },
    {
      "aggregatable": true,
      "custom": false,
      "defaultValue": null,
      "extraTypeInfo": null,
      "filterable": false,
      "groupable": true,
      "inlineHelpText": null,
      "label": "Título",
      "name": "Title",
      "nillable": true,
      "picklistValues": [],
      "referenceTo": [],
      "relationshipName": null,
      "sortable": true,
      "type": "string"
    },
    {
      "aggregatable": false,
      "custom": false,
      "defaultValue": null,
      "extraTypeInfo": "plaintextarea",
      "filterable": false,
      "groupable": false,
      "inlineHelpText": null,
      "label": "Cuerpo",
      "name": "Body",
      "nillable": true,
      "picklistValues": [],
      "referenceTo": [],
      "relationshipName": null,
      "sortable": true,
      "type": "textarea"
    },
    {
      "aggregatable": true,
      "custom": false,
      "defaultValue": null,
      "extraTypeInfo": null,
      "filterable": false,
      "groupable": false,
      "inlineHelpText": null,
      "label": "URL de enlace",
      "name": "LinkUrl",
      "nillable": true,
      "picklistValues": [],
      "referenceTo": [],
      "relationshipName": null,
      "sortable": true,
      "type": "url"
    },
    {
      "aggregatable": false,
      "custom": false,
      "defaultValue": false,
      "extraTypeInfo": null,
      "filterable": true,
      "groupable": true,
      "inlineHelpText": null,
      "label": "Es texto enriquecido",
      "name": "IsRichText",
      "nillable": false,
      "picklistValues": [],
      "referenceTo": [],
      "relationshipName": null,
      "sortable": true,
      "type": "boolean"
    },
    {
      "aggregatable": true,
      "custom": false,
      "defaultValue": null,
      "extraTypeInfo": null,
      "filterable": false,
      "groupable": true,
      "inlineHelpText": null,
      "label": "Id. de registro relacionado",
      "name": "RelatedRecordId",
      "nillable": true,
      "picklistValues": [],
      "referenceTo": [
        "ContentVersion"
      ],
      "relationshipName": null,
      "sortable": true,
      "type": "reference"
    },
    {
      "aggregatable": true,
      "custom": false,
      "defaultValue": null,
      "extraTypeInfo": null,
      "filterable": false,
      "groupable": true,
      "inlineHelpText": null,
      "label": "Introducido por Id.",
      "name": "InsertedById",
      "nillable": true,
      "picklistValues": [],
      "referenceTo": [
        "User"
      ],
      "relationshipName": "InsertedBy",
      "sortable": true,
      "type": "reference"
    },
    {
      "aggregatable": true,
      "custom": false,
      "defaultValue": null,
      "extraTypeInfo": null,
      "filterable": true,
      "groupable": true,
      "inlineHelpText": null,
      "label": "Id. del mejor comentario",
      "name": "BestCommentId",
      "nillable": true,
      "picklistValues": [],
      "referenceTo": [
        "FeedComment"
      ],
      "relationshipName": "BestComment",
      "sortable": true,
      "type": "reference"
    }
  ],
  "label": "Noticias de producto",
  "childRelationships": [
    {
      "cascadeDelete": true,
      "childSObject": "FeedAttachment",
      "deprecatedAndHidden": false,
      "field": "FeedEntityId",
      "junctionIdListNames": [],
      "junctionReferenceTo": [],
      "relationshipName": "FeedAttachments",
      "restrictedDelete": false
    },
    {
      "cascadeDelete": true,
      "childSObject": "FeedComment",
      "deprecatedAndHidden": false,
      "field": "FeedItemId",
      "junctionIdListNames": [],
      "junctionReferenceTo": [],
      "relationshipName": "FeedComments",
      "restrictedDelete": false
    },
    {
      "cascadeDelete": true,
      "childSObject": "FeedLike",
      "deprecatedAndHidden": false,
      "field": "FeedEntityId",
      "junctionIdListNames": [],
      "junctionReferenceTo": [],
      "relationshipName": null,
      "restrictedDelete": false
    },
    {
      "cascadeDelete": true,
      "childSObject": "FeedLike",
      "deprecatedAndHidden": false,
      "field": "FeedItemId",
      "junctionIdListNames": [],
      "junctionReferenceTo": [],
      "relationshipName": "FeedLikes",
      "restrictedDelete": false
    },
    {
      "cascadeDelete": true,
      "childSObject": "FeedPollChoice",
      "deprecatedAndHidden": false,
      "field": "FeedItemId",
      "junctionIdListNames": [],
      "junctionReferenceTo": [],
      "relationshipName": null,
      "restrictedDelete": false
    },
    {
      "cascadeDelete": true,
      "childSObject": "FeedPollVote",
      "deprecatedAndHidden": false,
      "field": "FeedItemId",
      "junctionIdListNames": [],
      "junctionReferenceTo": [],
      "relationshipName": null,
      "restrictedDelete": false
    },
    {
      "cascadeDelete": true,
      "childSObject": "FeedSignal",
      "deprecatedAndHidden": false,
      "field": "FeedEntityId",
      "junctionIdListNames": [],
      "junctionReferenceTo": [],
      "relationshipName": null,
      "restrictedDelete": false
    },
    {
      "cascadeDelete": true,
      "childSObject": "FeedSignal",
      "deprecatedAndHidden": false,
      "field": "FeedItemId",
      "junctionIdListNames": [],
      "junctionReferenceTo": [],
      "relationshipName": "FeedSignals",
      "restrictedDelete": false
    },
    {
      "cascadeDelete": true,
      "childSObject": "FeedTrackedChange",
      "deprecatedAndHidden": false,
      "field": "FeedItemId",
      "junctionIdListNames": [],
      "junctionReferenceTo": [],
      "relationshipName": "FeedTrackedChanges",
      "restrictedDelete": false
    }
  ],
  "custom": false,
  "name": "Product2Feed",
  "queryable": true
}